{
  "href": "https://api.spotify.com/v1/artists/40tNK2YedBV2jRFAHxpifB/albums?offset=0&limit=7&locale=zh-CN,zh;q%3D0.9,en;q%3D0.8&include_groups=single",
  "limit": 7,
  "next": "https://api.spotify.com/v1/artists/40tNK2YedBV2jRFAHxpifB/albums?offset=7&limit=7&locale=zh-CN,zh;q%3D0.9,en;q%3D0.8&include_groups=single",
  "offset": 0,
  "previous": null,
  "total": 26,
  "items": [
    {
      "album_type": "single",
      "total_tracks": 1,
      "available_markets": [
        "AR",
        "AU",
        "AT",
        "BE",
        "BO",
        "BR",
        "BG",
        "CA",
        "CL",
        "CO",
        "CR",
        "CY",
        "CZ",
        "DK",
        "DO",
        "DE",
        "EC",
        "EE",
        "SV",
        "FI",
        "FR",
        "GR",
        "GT",
        "HN",
        "HK",
        "HU",
        "IS",
        "IE",
        "IT",
        "LV",
        "LT",
        "LU",
        "MY",
        "MT",
        "MX",
        "NL",
        "NZ",
        "NI",
        "NO",
        "PA",
        "PY",
        "PE",
        "PH",
        "PL",
        "PT",
        "SG",
        "SK",
        "ES",
        "SE",
        "CH",
        "TW",
        "TR",
        "UY",
        "US",
        "GB",
        "AD",
        "LI",
        "MC",
        "ID",
        "JP",
        "TH",
        "VN",
        "RO",
        "IL",
        "ZA",
        "SA",
        "AE",
        "BH",
        "QA",
        "OM",
        "KW",
        "EG",
        "MA",
        "DZ",
        "TN",
        "LB",
        "JO",
        "PS",
        "IN",
        "BY",
        "KZ",
        "MD",
        "UA",
        "AL",
        "BA",
        "HR",
        "ME",
        "MK",
        "RS",
        "SI",
        "KR",
        "BD",
        "PK",
        "LK",
        "GH",
        "KE",
        "NG",
        "TZ",
        "UG",
        "AG",
        "AM",
        "BS",
        "BB",
        "BZ",
        "BT",
        "BW",
        "BF",
        "CV",
        "CW",
        "DM",
        "FJ",
        "GM",
        "GE",
        "GD",
        "GW",
        "GY",
        "HT",
        "JM",
        "KI",
        "LS",
        "LR",
        "MW",
        "MV",
        "ML",
        "MH",
        "FM",
        "NA",
        "NR",
        "NE",
        "PW",
        "PG",
        "PR",
        "WS",
        "SM",
        "ST",
        "SN",
        "SC",
        "SL",
        "SB",
        "KN",
        "LC",
        "VC",
        "SR",
        "TL",
        "TO",
        "TT",
        "TV",
        "VU",
        "AZ",
        "BN",
        "BI",
        "KH",
        "CM",
        "TD",
        "KM",
        "GQ",
        "SZ",
        "GA",
        "GN",
        "KG",
        "LA",
        "MO",
        "MR",
        "MN",
        "NP",
        "RW",
        "TG",
        "UZ",
        "ZW",
        "BJ",
        "MG",
        "MU",
        "MZ",
        "AO",
        "CI",
        "DJ",
        "ZM",
        "CD",
        "CG",
        "IQ",
        "LY",
        "TJ",
        "VE",
        "ET",
        "XK"
      ],
      "external_urls": {
        "spotify": "https://open.spotify.com/album/3Y0HDfd3X2m5RZ1ldLtiOl"
      },
      "href": "https://api.spotify.com/v1/albums/3Y0HDfd3X2m5RZ1ldLtiOl",
      "id": "3Y0HDfd3X2m5RZ1ldLtiOl",
      "images": [
        {
          "url": "https://i.scdn.co/image/ab67616d0000b2731949a2a70165363db666b2b5",
          "height": 640,
          "width": 640
        },
        {
          "url": "https://i.scdn.co/image/ab67616d00001e021949a2a70165363db666b2b5",
          "height": 300,
          "width": 300
        },
        {
          "url": "https://i.scdn.co/image/ab67616d000048511949a2a70165363db666b2b5",
          "height": 64,
          "width": 64
        }
      ],
      "name": "小子",
      "release_date": "2024-02-02",
      "release_date_precision": "day",
      "type": "album",
      "uri": "spotify:album:3Y0HDfd3X2m5RZ1ldLtiOl",
      "artists": [
        {
          "external_urls": {
            "spotify": "https://open.spotify.com/artist/40tNK2YedBV2jRFAHxpifB"
          },
          "href": "https://api.spotify.com/v1/artists/40tNK2YedBV2jRFAHxpifB",
          "id": "40tNK2YedBV2jRFAHxpifB",
          "name": "陶喆",
          "type": "artist",
          "uri": "spotify:artist:40tNK2YedBV2jRFAHxpifB"
        }
      ],
      "album_group": "single"
    },
    {
      "album_type": "single",
      "total_tracks": 1,
      "available_markets": [
        "AR",
        "AU",
        "AT",
        "BE",
        "BO",
        "BR",
        "BG",
        "CA",
        "CL",
        "CO",
        "CR",
        "CY",
        "CZ",
        "DK",
        "DO",
        "DE",
        "EC",
        "EE",
        "SV",
        "FI",
        "FR",
        "GR",
        "GT",
        "HN",
        "HK",
        "HU",
        "IS",
        "IE",
        "IT",
        "LV",
        "LT",
        "LU",
        "MY",
        "MT",
        "MX",
        "NL",
        "NZ",
        "NI",
        "NO",
        "PA",
        "PY",
        "PE",
        "PH",
        "PL",
        "PT",
        "SG",
        "SK",
        "ES",
        "SE",
        "CH",
        "TW",
        "TR",
        "UY",
        "US",
        "GB",
        "AD",
        "LI",
        "MC",
        "ID",
        "JP",
        "TH",
        "VN",
        "RO",
        "IL",
        "ZA",
        "SA",
        "AE",
        "BH",
        "QA",
        "OM",
        "KW",
        "EG",
        "MA",
        "DZ",
        "TN",
        "LB",
        "JO",
        "PS",
        "IN",
        "BY",
        "KZ",
        "MD",
        "UA",
        "AL",
        "BA",
        "HR",
        "ME",
        "MK",
        "RS",
        "SI",
        "KR",
        "BD",
        "PK",
        "LK",
        "GH",
        "KE",
        "NG",
        "TZ",
        "UG",
        "AG",
        "AM",
        "BS",
        "BB",
        "BZ",
        "BT",
        "BW",
        "BF",
        "CV",
        "CW",
        "DM",
        "FJ",
        "GM",
        "GE",
        "GD",
        "GW",
        "GY",
        "HT",
        "JM",
        "KI",
        "LS",
        "LR",
        "MW",
        "MV",
        "ML",
        "MH",
        "FM",
        "NA",
        "NR",
        "NE",
        "PW",
        "PG",
        "PR",
        "WS",
        "SM",
        "ST",
        "SN",
        "SC",
        "SL",
        "SB",
        "KN",
        "LC",
        "VC",
        "SR",
        "TL",
        "TO",
        "TT",
        "TV",
        "VU",
        "AZ",
        "BN",
        "BI",
        "KH",
        "CM",
        "TD",
        "KM",
        "GQ",
        "SZ",
        "GA",
        "GN",
        "KG",
        "LA",
        "MO",
        "MR",
        "MN",
        "NP",
        "RW",
        "TG",
        "UZ",
        "ZW",
        "BJ",
        "MG",
        "MU",
        "MZ",
        "AO",
        "CI",
        "DJ",
        "ZM",
        "CD",
        "CG",
        "IQ",
        "LY",
        "TJ",
        "VE",
        "ET",
        "XK"
      ],
      "external_urls": {
        "spotify": "https://open.spotify.com/album/3ZjksCFzY8Iftw1uHfIlPp"
      },
      "href": "https://api.spotify.com/v1/albums/3ZjksCFzY8Iftw1uHfIlPp",
      "id": "3ZjksCFzY8Iftw1uHfIlPp",
      "images": [
        {
          "url": "https://i.scdn.co/image/ab67616d0000b2735cf979c42d57e1fe8ad8942c",
          "height": 640,
          "width": 640
        },
        {
          "url": "https://i.scdn.co/image/ab67616d00001e025cf979c42d57e1fe8ad8942c",
          "height": 300,
          "width": 300
        },
        {
          "url": "https://i.scdn.co/image/ab67616d000048515cf979c42d57e1fe8ad8942c",
          "height": 64,
          "width": 64
        }
      ],
      "name": "星心",
      "release_date": "2024-01-22",
      "release_date_precision": "day",
      "type": "album",
      "uri": "spotify:album:3ZjksCFzY8Iftw1uHfIlPp",
      "artists": [
        {
          "external_urls": {
            "spotify": "https://open.spotify.com/artist/40tNK2YedBV2jRFAHxpifB"
          },
          "href": "https://api.spotify.com/v1/artists/40tNK2YedBV2jRFAHxpifB",
          "id": "40tNK2YedBV2jRFAHxpifB",
          "name": "陶喆",
          "type": "artist",
          "uri": "spotify:artist:40tNK2YedBV2jRFAHxpifB"
        }
      ],
      "album_group": "single"
    },
    {
      "album_type": "single",
      "total_tracks": 1,
      "available_markets": [
        "AR",
        "AU",
        "AT",
        "BE",
        "BO",
        "BR",
        "BG",
        "CA",
        "CL",
        "CO",
        "CR",
        "CY",
        "CZ",
        "DK",
        "DO",
        "DE",
        "EC",
        "EE",
        "SV",
        "FI",
        "FR",
        "GR",
        "GT",
        "HN",
        "HK",
        "HU",
        "IS",
        "IE",
        "IT",
        "LV",
        "LT",
        "LU",
        "MY",
        "MT",
        "MX",
        "NL",
        "NZ",
        "NI",
        "NO",
        "PA",
        "PY",
        "PE",
        "PH",
        "PL",
        "PT",
        "SG",
        "SK",
        "ES",
        "SE",
        "CH",
        "TW",
        "TR",
        "UY",
        "US",
        "GB",
        "AD",
        "LI",
        "MC",
        "ID",
        "JP",
        "TH",
        "VN",
        "RO",
        "IL",
        "ZA",
        "SA",
        "AE",
        "BH",
        "QA",
        "OM",
        "KW",
        "EG",
        "MA",
        "DZ",
        "TN",
        "LB",
        "JO",
        "PS",
        "IN",
        "BY",
        "KZ",
        "MD",
        "UA",
        "AL",
        "BA",
        "HR",
        "ME",
        "MK",
        "RS",
        "SI",
        "KR",
        "BD",
        "PK",
        "LK",
        "GH",
        "KE",
        "NG",
        "TZ",
        "UG",
        "AG",
        "AM",
        "BS",
        "BB",
        "BZ",
        "BT",
        "BW",
        "BF",
        "CV",
        "CW",
        "DM",
        "FJ",
        "GM",
        "GE",
        "GD",
        "GW",
        "GY",
        "HT",
        "JM",
        "KI",
        "LS",
        "LR",
        "MW",
        "MV",
        "ML",
        "MH",
        "FM",
        "NA",
        "NR",
        "NE",
        "PW",
        "PG",
        "PR",
        "WS",
        "SM",
        "ST",
        "SN",
        "SC",
        "SL",
        "SB",
        "KN",
        "LC",
        "VC",
        "SR",
        "TL",
        "TO",
        "TT",
        "TV",
        "VU",
        "AZ",
        "BN",
        "BI",
        "KH",
        "CM",
        "TD",
        "KM",
        "GQ",
        "SZ",
        "GA",
        "GN",
        "KG",
        "LA",
        "MO",
        "MR",
        "MN",
        "NP",
        "RW",
        "TG",
        "UZ",
        "ZW",
        "BJ",
        "MG",
        "MU",
        "MZ",
        "AO",
        "CI",
        "DJ",
        "ZM",
        "CD",
        "CG",
        "IQ",
        "LY",
        "TJ",
        "VE",
        "ET",
        "XK"
      ],
      "external_urls": {
        "spotify": "https://open.spotify.com/album/7c5jXoKpgu9cXCQsXkqbcE"
      },
      "href": "https://api.spotify.com/v1/albums/7c5jXoKpgu9cXCQsXkqbcE",
      "id": "7c5jXoKpgu9cXCQsXkqbcE",
      "images": [
        {
          "url": "https://i.scdn.co/image/ab67616d0000b2737f73af33f2b3848776728d2f",
          "height": 640,
          "width": 640
        },
        {
          "url": "https://i.scdn.co/image/ab67616d00001e027f73af33f2b3848776728d2f",
          "height": 300,
          "width": 300
        },
        {
          "url": "https://i.scdn.co/image/ab67616d000048517f73af33f2b3848776728d2f",
          "height": 64,
          "width": 64
        }
      ],
      "name": "I'm OK (Reimagined)",
      "release_date": "2023-09-28",
      "release_date_precision": "day",
      "type": "album",
      "uri": "spotify:album:7c5jXoKpgu9cXCQsXkqbcE",
      "artists": [
        {
          "external_urls": {
            "spotify": "https://open.spotify.com/artist/40tNK2YedBV2jRFAHxpifB"
          },
          "href": "https://api.spotify.com/v1/artists/40tNK2YedBV2jRFAHxpifB",
          "id": "40tNK2YedBV2jRFAHxpifB",
          "name": "陶喆",
          "type": "artist",
          "uri": "spotify:artist:40tNK2YedBV2jRFAHxpifB"
        }
      ],
      "album_group": "single"
    },
    {
      "album_type": "single",
      "total_tracks": 1,
      "available_markets": [
        "AR",
        "AU",
        "AT",
        "BE",
        "BO",
        "BR",
        "BG",
        "CA",
        "CL",
        "CO",
        "CR",
        "CY",
        "CZ",
        "DK",
        "DO",
        "DE",
        "EC",
        "EE",
        "SV",
        "FI",
        "FR",
        "GR",
        "GT",
        "HN",
        "HK",
        "HU",
        "IS",
        "IE",
        "IT",
        "LV",
        "LT",
        "LU",
        "MY",
        "MT",
        "MX",
        "NL",
        "NZ",
        "NI",
        "NO",
        "PA",
        "PY",
        "PE",
        "PH",
        "PL",
        "PT",
        "SG",
        "SK",
        "ES",
        "SE",
        "CH",
        "TW",
        "TR",
        "UY",
        "US",
        "GB",
        "AD",
        "LI",
        "MC",
        "ID",
        "JP",
        "TH",
        "VN",
        "RO",
        "IL",
        "ZA",
        "SA",
        "AE",
        "BH",
        "QA",
        "OM",
        "KW",
        "EG",
        "MA",
        "DZ",
        "TN",
        "LB",
        "JO",
        "PS",
        "IN",
        "BY",
        "KZ",
        "MD",
        "UA",
        "AL",
        "BA",
        "HR",
        "ME",
        "MK",
        "RS",
        "SI",
        "KR",
        "BD",
        "PK",
        "LK",
        "GH",
        "KE",
        "NG",
        "TZ",
        "UG",
        "AG",
        "AM",
        "BS",
        "BB",
        "BZ",
        "BT",
        "BW",
        "BF",
        "CV",
        "CW",
        "DM",
        "FJ",
        "GM",
        "GE",
        "GD",
        "GW",
        "GY",
        "HT",
        "JM",
        "KI",
        "LS",
        "LR",
        "MW",
        "MV",
        "ML",
        "MH",
        "FM",
        "NA",
        "NR",
        "NE",
        "PW",
        "PG",
        "PR",
        "WS",
        "SM",
        "ST",
        "SN",
        "SC",
        "SL",
        "SB",
        "KN",
        "LC",
        "VC",
        "SR",
        "TL",
        "TO",
        "TT",
        "TV",
        "VU",
        "AZ",
        "BN",
        "BI",
        "KH",
        "CM",
        "TD",
        "KM",
        "GQ",
        "SZ",
        "GA",
        "GN",
        "KG",
        "LA",
        "MO",
        "MR",
        "MN",
        "NP",
        "RW",
        "TG",
        "UZ",
        "ZW",
        "BJ",
        "MG",
        "MU",
        "MZ",
        "AO",
        "CI",
        "DJ",
        "ZM",
        "CD",
        "CG",
        "IQ",
        "LY",
        "TJ",
        "VE",
        "ET",
        "XK"
      ],
      "external_urls": {
        "spotify": "https://open.spotify.com/album/4PMLEh4pzeN5crdt4mx25w"
      },
      "href": "https://api.spotify.com/v1/albums/4PMLEh4pzeN5crdt4mx25w",
      "id": "4PMLEh4pzeN5crdt4mx25w",
      "images": [
        {
          "url": "https://i.scdn.co/image/ab67616d0000b2732f81f5d87fda03cf56bcc1eb",
          "height": 640,
          "width": 640
        },
        {
          "url": "https://i.scdn.co/image/ab67616d00001e022f81f5d87fda03cf56bcc1eb",
          "height": 300,
          "width": 300
        },
        {
          "url": "https://i.scdn.co/image/ab67616d000048512f81f5d87fda03cf56bcc1eb",
          "height": 64,
          "width": 64
        }
      ],
      "name": "活該",
      "release_date": "2023-08-16",
      "release_date_precision": "day",
      "type": "album",
      "uri": "spotify:album:4PMLEh4pzeN5crdt4mx25w",
      "artists": [
        {
          "external_urls": {
            "spotify": "https://open.spotify.com/artist/40tNK2YedBV2jRFAHxpifB"
          },
          "href": "https://api.spotify.com/v1/artists/40tNK2YedBV2jRFAHxpifB",
          "id": "40tNK2YedBV2jRFAHxpifB",
          "name": "陶喆",
          "type": "artist",
          "uri": "spotify:artist:40tNK2YedBV2jRFAHxpifB"
        }
      ],
      "album_group": "single"
    },
    {
      "album_type": "single",
      "total_tracks": 1,
      "available_markets": [
        "AR",
        "AU",
        "AT",
        "BE",
        "BO",
        "BR",
        "BG",
        "CA",
        "CL",
        "CO",
        "CR",
        "CY",
        "CZ",
        "DK",
        "DO",
        "DE",
        "EC",
        "EE",
        "SV",
        "FI",
        "FR",
        "GR",
        "GT",
        "HN",
        "HK",
        "HU",
        "IS",
        "IE",
        "IT",
        "LV",
        "LT",
        "LU",
        "MY",
        "MT",
        "MX",
        "NL",
        "NZ",
        "NI",
        "NO",
        "PA",
        "PY",
        "PE",
        "PH",
        "PL",
        "PT",
        "SG",
        "SK",
        "ES",
        "SE",
        "CH",
        "TW",
        "TR",
        "UY",
        "US",
        "GB",
        "AD",
        "LI",
        "MC",
        "ID",
        "JP",
        "TH",
        "VN",
        "RO",
        "IL",
        "ZA",
        "SA",
        "AE",
        "BH",
        "QA",
        "OM",
        "KW",
        "EG",
        "MA",
        "DZ",
        "TN",
        "LB",
        "JO",
        "PS",
        "IN",
        "BY",
        "KZ",
        "MD",
        "UA",
        "AL",
        "BA",
        "HR",
        "ME",
        "MK",
        "RS",
        "SI",
        "KR",
        "BD",
        "PK",
        "LK",
        "GH",
        "KE",
        "NG",
        "TZ",
        "UG",
        "AG",
        "AM",
        "BS",
        "BB",
        "BZ",
        "BT",
        "BW",
        "BF",
        "CV",
        "CW",
        "DM",
        "FJ",
        "GM",
        "GE",
        "GD",
        "GW",
        "GY",
        "HT",
        "JM",
        "KI",
        "LS",
        "LR",
        "MW",
        "MV",
        "ML",
        "MH",
        "FM",
        "NA",
        "NR",
        "NE",
        "PW",
        "PG",
        "PR",
        "WS",
        "SM",
        "ST",
        "SN",
        "SC",
        "SL",
        "SB",
        "KN",
        "LC",
        "VC",
        "SR",
        "TL",
        "TO",
        "TT",
        "TV",
        "VU",
        "AZ",
        "BN",
        "BI",
        "KH",
        "CM",
        "TD",
        "KM",
        "GQ",
        "SZ",
        "GA",
        "GN",
        "KG",
        "LA",
        "MO",
        "MR",
        "MN",
        "NP",
        "RW",
        "TG",
        "UZ",
        "ZW",
        "BJ",
        "MG",
        "MU",
        "MZ",
        "AO",
        "CI",
        "DJ",
        "ZM",
        "CD",
        "CG",
        "IQ",
        "LY",
        "TJ",
        "VE",
        "ET",
        "XK"
      ],
      "external_urls": {
        "spotify": "https://open.spotify.com/album/6Qk4DCn1KW3xtICt7Zm08c"
      },
      "href": "https://api.spotify.com/v1/albums/6Qk4DCn1KW3xtICt7Zm08c",
      "id": "6Qk4DCn1KW3xtICt7Zm08c",
      "images": [
        {
          "url": "https://i.scdn.co/image/ab67616d0000b273c82274754b156a4c4aeecfc6",
          "height": 640,
          "width": 640
        },
        {
          "url": "https://i.scdn.co/image/ab67616d00001e02c82274754b156a4c4aeecfc6",
          "height": 300,
          "width": 300
        },
        {
          "url": "https://i.scdn.co/image/ab67616d00004851c82274754b156a4c4aeecfc6",
          "height": 64,
          "width": 64
        }
      ],
      "name": "全世界會唱的歌",
      "release_date": "2023-07-11",
      "release_date_precision": "day",
      "type": "album",
      "uri": "spotify:album:6Qk4DCn1KW3xtICt7Zm08c",
      "artists": [
        {
          "external_urls": {
            "spotify": "https://open.spotify.com/artist/40tNK2YedBV2jRFAHxpifB"
          },
          "href": "https://api.spotify.com/v1/artists/40tNK2YedBV2jRFAHxpifB",
          "id": "40tNK2YedBV2jRFAHxpifB",
          "name": "陶喆",
          "type": "artist",
          "uri": "spotify:artist:40tNK2YedBV2jRFAHxpifB"
        }
      ],
      "album_group": "single"
    },
    {
      "album_type": "single",
      "total_tracks": 1,
      "available_markets": [
        "AR",
        "AU",
        "AT",
        "BE",
        "BO",
        "BR",
        "BG",
        "CA",
        "CL",
        "CO",
        "CR",
        "CY",
        "CZ",
        "DK",
        "DO",
        "DE",
        "EC",
        "EE",
        "SV",
        "FI",
        "FR",
        "GR",
        "GT",
        "HN",
        "HK",
        "HU",
        "IS",
        "IE",
        "IT",
        "LV",
        "LT",
        "LU",
        "MY",
        "MT",
        "MX",
        "NL",
        "NZ",
        "NI",
        "NO",
        "PA",
        "PY",
        "PE",
        "PH",
        "PL",
        "PT",
        "SG",
        "SK",
        "ES",
        "SE",
        "CH",
        "TW",
        "TR",
        "UY",
        "US",
        "GB",
        "AD",
        "LI",
        "MC",
        "ID",
        "JP",
        "TH",
        "VN",
        "RO",
        "IL",
        "ZA",
        "SA",
        "AE",
        "BH",
        "QA",
        "OM",
        "KW",
        "EG",
        "MA",
        "DZ",
        "TN",
        "LB",
        "JO",
        "PS",
        "IN",
        "BY",
        "KZ",
        "MD",
        "UA",
        "AL",
        "BA",
        "HR",
        "ME",
        "MK",
        "RS",
        "SI",
        "KR",
        "BD",
        "PK",
        "LK",
        "GH",
        "KE",
        "NG",
        "TZ",
        "UG",
        "AG",
        "AM",
        "BS",
        "BB",
        "BZ",
        "BT",
        "BW",
        "BF",
        "CV",
        "CW",
        "DM",
        "FJ",
        "GM",
        "GE",
        "GD",
        "GW",
        "GY",
        "HT",
        "JM",
        "KI",
        "LS",
        "LR",
        "MW",
        "MV",
        "ML",
        "MH",
        "FM",
        "NA",
        "NR",
        "NE",
        "PW",
        "PG",
        "PR",
        "WS",
        "SM",
        "ST",
        "SN",
        "SC",
        "SL",
        "SB",
        "KN",
        "LC",
        "VC",
        "SR",
        "TL",
        "TO",
        "TT",
        "TV",
        "VU",
        "AZ",
        "BN",
        "BI",
        "KH",
        "CM",
        "TD",
        "KM",
        "GQ",
        "SZ",
        "GA",
        "GN",
        "KG",
        "LA",
        "MO",
        "MR",
        "MN",
        "NP",
        "RW",
        "TG",
        "UZ",
        "ZW",
        "BJ",
        "MG",
        "MU",
        "MZ",
        "AO",
        "CI",
        "DJ",
        "ZM",
        "CD",
        "CG",
        "IQ",
        "LY",
        "TJ",
        "VE",
        "ET",
        "XK"
      ],
      "external_urls": {
        "spotify": "https://open.spotify.com/album/2qBynilrtiV9e0Zh2drTow"
      },
      "href": "https://api.spotify.com/v1/albums/2qBynilrtiV9e0Zh2drTow",
      "id": "2qBynilrtiV9e0Zh2drTow",
      "images": [
        {
          "url": "https://i.scdn.co/image/ab67616d0000b273b87aa3e1b24ec5f45016409e",
          "height": 640,
          "width": 640
        },
        {
          "url": "https://i.scdn.co/image/ab67616d00001e02b87aa3e1b24ec5f45016409e",
          "height": 300,
          "width": 300
        },
        {
          "url": "https://i.scdn.co/image/ab67616d00004851b87aa3e1b24ec5f45016409e",
          "height": 64,
          "width": 64
        }
      ],
      "name": "流沙 (Reimagined)",
      "release_date": "2023-07-03",
      "release_date_precision": "day",
      "type": "album",
      "uri": "spotify:album:2qBynilrtiV9e0Zh2drTow",
      "artists": [
        {
          "external_urls": {
            "spotify": "https://open.spotify.com/artist/40tNK2YedBV2jRFAHxpifB"
          },
          "href": "https://api.spotify.com/v1/artists/40tNK2YedBV2jRFAHxpifB",
          "id": "40tNK2YedBV2jRFAHxpifB",
          "name": "陶喆",
          "type": "artist",
          "uri": "spotify:artist:40tNK2YedBV2jRFAHxpifB"
        }
      ],
      "album_group": "single"
    },
    {
      "album_type": "single",
      "total_tracks": 1,
      "available_markets": [
        "AR",
        "AU",
        "AT",
        "BE",
        "BO",
        "BR",
        "BG",
        "CA",
        "CL",
        "CO",
        "CR",
        "CY",
        "CZ",
        "DK",
        "DO",
        "DE",
        "EC",
        "EE",
        "SV",
        "FI",
        "FR",
        "GR",
        "GT",
        "HN",
        "HK",
        "HU",
        "IS",
        "IE",
        "IT",
        "LV",
        "LT",
        "LU",
        "MY",
        "MT",
        "MX",
        "NL",
        "NZ",
        "NI",
        "NO",
        "PA",
        "PY",
        "PE",
        "PH",
        "PL",
        "PT",
        "SG",
        "SK",
        "ES",
        "SE",
        "CH",
        "TW",
        "TR",
        "UY",
        "US",
        "GB",
        "AD",
        "LI",
        "MC",
        "ID",
        "JP",
        "TH",
        "VN",
        "RO",
        "IL",
        "ZA",
        "SA",
        "AE",
        "BH",
        "QA",
        "OM",
        "KW",
        "EG",
        "MA",
        "DZ",
        "TN",
        "LB",
        "JO",
        "PS",
        "IN",
        "BY",
        "KZ",
        "MD",
        "UA",
        "AL",
        "BA",
        "HR",
        "ME",
        "MK",
        "RS",
        "SI",
        "KR",
        "BD",
        "PK",
        "LK",
        "GH",
        "KE",
        "NG",
        "TZ",
        "UG",
        "AG",
        "AM",
        "BS",
        "BB",
        "BZ",
        "BT",
        "BW",
        "BF",
        "CV",
        "CW",
        "DM",
        "FJ",
        "GM",
        "GE",
        "GD",
        "GW",
        "GY",
        "HT",
        "JM",
        "KI",
        "LS",
        "LR",
        "MW",
        "MV",
        "ML",
        "MH",
        "FM",
        "NA",
        "NR",
        "NE",
        "PW",
        "PG",
        "PR",
        "WS",
        "SM",
        "ST",
        "SN",
        "SC",
        "SL",
        "SB",
        "KN",
        "LC",
        "VC",
        "SR",
        "TL",
        "TO",
        "TT",
        "TV",
        "VU",
        "AZ",
        "BN",
        "BI",
        "KH",
        "CM",
        "TD",
        "KM",
        "GQ",
        "SZ",
        "GA",
        "GN",
        "KG",
        "LA",
        "MO",
        "MR",
        "MN",
        "NP",
        "RW",
        "TG",
        "UZ",
        "ZW",
        "BJ",
        "MG",
        "MU",
        "MZ",
        "AO",
        "CI",
        "DJ",
        "ZM",
        "CD",
        "CG",
        "IQ",
        "LY",
        "TJ",
        "VE",
        "ET",
        "XK"
      ],
      "external_urls": {
        "spotify": "https://open.spotify.com/album/63zHQlg0xTAbsbRngzDwm9"
      },
      "href": "https://api.spotify.com/v1/albums/63zHQlg0xTAbsbRngzDwm9",
      "id": "63zHQlg0xTAbsbRngzDwm9",
      "images": [
        {
          "url": "https://i.scdn.co/image/ab67616d0000b273eac0616fd6ce3c37874f7152",
          "height": 640,
          "width": 640
        },
        {
          "url": "https://i.scdn.co/image/ab67616d00001e02eac0616fd6ce3c37874f7152",
          "height": 300,
          "width": 300
        },
        {
          "url": "https://i.scdn.co/image/ab67616d00004851eac0616fd6ce3c37874f7152",
          "height": 64,
          "width": 64
        }
      ],
      "name": "聖誕之吻",
      "release_date": "2020-12-24",
      "release_date_precision": "day",
      "type": "album",
      "uri": "spotify:album:63zHQlg0xTAbsbRngzDwm9",
      "artists": [
        {
          "external_urls": {
            "spotify": "https://open.spotify.com/artist/40tNK2YedBV2jRFAHxpifB"
          },
          "href": "https://api.spotify.com/v1/artists/40tNK2YedBV2jRFAHxpifB",
          "id": "40tNK2YedBV2jRFAHxpifB",
          "name": "陶喆",
          "type": "artist",
          "uri": "spotify:artist:40tNK2YedBV2jRFAHxpifB"
        }
      ],
      "album_group": "single"
    }
  ]
}
