{
  "href": "https://api.spotify.com/v1/artists/40tNK2YedBV2jRFAHxpifB/albums?offset=0&limit=7&locale=zh-CN,zh;q%3D0.9,en;q%3D0.8&include_groups=album,single,compilation,appears_on",
  "limit": 7,
  "next": "https://api.spotify.com/v1/artists/40tNK2YedBV2jRFAHxpifB/albums?offset=7&limit=7&locale=zh-CN,zh;q%3D0.9,en;q%3D0.8&include_groups=album,single,compilation,appears_on",
  "offset": 0,
  "previous": null,
  "total": 26,
  "items": [
    {
      "album_type": "album",
      "total_tracks": 31,
      "available_markets": [
        "AR",
        "AU",
        "AT",
        "BE",
        "BO",
        "BR",
        "BG",
        "CA",
        "CL",
        "CO",
        "CR",
        "CY",
        "CZ",
        "DK",
        "DO",
        "DE",
        "EC",
        "EE",
        "SV",
        "FI",
        "FR",
        "GR",
        "GT",
        "HN",
        "HK",
        "HU",
        "IS",
        "IE",
        "IT",
        "LV",
        "LT",
        "LU",
        "MY",
        "MT",
        "MX",
        "NL",
        "NZ",
        "NI",
        "NO",
        "PA",
        "PY",
        "PE",
        "PH",
        "PL",
        "PT",
        "SG",
        "SK",
        "ES",
        "SE",
        "CH",
        "TW",
        "TR",
        "UY",
        "US",
        "GB",
        "AD",
        "LI",
        "MC",
        "ID",
        "JP",
        "TH",
        "VN",
        "RO",
        "IL",
        "ZA",
        "SA",
        "AE",
        "BH",
        "QA",
        "OM",
        "KW",
        "EG",
        "MA",
        "DZ",
        "TN",
        "LB",
        "JO",
        "PS",
        "IN",
        "BY",
        "KZ",
        "MD",
        "UA",
        "AL",
        "BA",
        "HR",
        "ME",
        "MK",
        "RS",
        "SI",
        "KR",
        "BD",
        "PK",
        "LK",
        "GH",
        "KE",
        "NG",
        "TZ",
        "UG",
        "AG",
        "AM",
        "BS",
        "BB",
        "BZ",
        "BT",
        "BW",
        "BF",
        "CV",
        "CW",
        "DM",
        "FJ",
        "GM",
        "GE",
        "GD",
        "GW",
        "GY",
        "HT",
        "JM",
        "KI",
        "LS",
        "LR",
        "MW",
        "MV",
        "ML",
        "MH",
        "FM",
        "NA",
        "NR",
        "NE",
        "PW",
        "PG",
        "PR",
        "WS",
        "SM",
        "ST",
        "SN",
        "SC",
        "SL",
        "SB",
        "KN",
        "LC",
        "VC",
        "SR",
        "TL",
        "TO",
        "TT",
        "TV",
        "VU",
        "AZ",
        "BN",
        "BI",
        "KH",
        "CM",
        "TD",
        "KM",
        "GQ",
        "SZ",
        "GA",
        "GN",
        "KG",
        "LA",
        "MO",
        "MR",
        "MN",
        "NP",
        "RW",
        "TG",
        "UZ",
        "ZW",
        "BJ",
        "MG",
        "MU",
        "MZ",
        "AO",
        "CI",
        "DJ",
        "ZM",
        "CD",
        "CG",
        "IQ",
        "LY",
        "TJ",
        "VE",
        "ET",
        "XK"
      ],
      "external_urls": {
        "spotify": "https://open.spotify.com/album/5FezUaPxYnK9LkAjYDDFEv"
      },
      "href": "https://api.spotify.com/v1/albums/5FezUaPxYnK9LkAjYDDFEv",
      "id": "5FezUaPxYnK9LkAjYDDFEv",
      "images": [
        {
          "url": "https://i.scdn.co/image/ab67616d0000b27365e69b0c6961abe7baf075fe",
          "height": 640,
          "width": 640
        },
        {
          "url": "https://i.scdn.co/image/ab67616d00001e0265e69b0c6961abe7baf075fe",
          "height": 300,
          "width": 300
        },
        {
          "url": "https://i.scdn.co/image/ab67616d0000485165e69b0c6961abe7baf075fe",
          "height": 64,
          "width": 64
        }
      ],
      "name": "Live Again 陶喆小人物狂想曲現場專輯",
      "release_date": "2017-06-08",
      "release_date_precision": "day",
      "type": "album",
      "uri": "spotify:album:5FezUaPxYnK9LkAjYDDFEv",
      "artists": [
        {
          "external_urls": {
            "spotify": "https://open.spotify.com/artist/40tNK2YedBV2jRFAHxpifB"
          },
          "href": "https://api.spotify.com/v1/artists/40tNK2YedBV2jRFAHxpifB",
          "id": "40tNK2YedBV2jRFAHxpifB",
          "name": "陶喆",
          "type": "artist",
          "uri": "spotify:artist:40tNK2YedBV2jRFAHxpifB"
        }
      ],
      "album_group": "album"
    },
    {
      "album_type": "album",
      "total_tracks": 13,
      "available_markets": [
        "AR",
        "AU",
        "AT",
        "BE",
        "BO",
        "BR",
        "BG",
        "CA",
        "CL",
        "CO",
        "CR",
        "CY",
        "CZ",
        "DK",
        "DO",
        "DE",
        "EC",
        "EE",
        "SV",
        "FI",
        "FR",
        "GR",
        "GT",
        "HN",
        "HK",
        "HU",
        "IS",
        "IE",
        "IT",
        "LV",
        "LT",
        "LU",
        "MY",
        "MT",
        "MX",
        "NL",
        "NZ",
        "NI",
        "NO",
        "PA",
        "PY",
        "PE",
        "PH",
        "PL",
        "PT",
        "SG",
        "SK",
        "ES",
        "SE",
        "CH",
        "TW",
        "TR",
        "UY",
        "US",
        "GB",
        "AD",
        "LI",
        "MC",
        "ID",
        "JP",
        "TH",
        "VN",
        "RO",
        "IL",
        "ZA",
        "SA",
        "AE",
        "BH",
        "QA",
        "OM",
        "KW",
        "EG",
        "MA",
        "DZ",
        "TN",
        "LB",
        "JO",
        "PS",
        "IN",
        "BY",
        "KZ",
        "MD",
        "UA",
        "AL",
        "BA",
        "HR",
        "ME",
        "MK",
        "RS",
        "SI",
        "KR",
        "BD",
        "PK",
        "LK",
        "GH",
        "KE",
        "NG",
        "TZ",
        "UG",
        "AG",
        "AM",
        "BS",
        "BB",
        "BZ",
        "BT",
        "BW",
        "BF",
        "CV",
        "CW",
        "DM",
        "FJ",
        "GM",
        "GE",
        "GD",
        "GW",
        "GY",
        "HT",
        "JM",
        "KI",
        "LS",
        "LR",
        "MW",
        "MV",
        "ML",
        "MH",
        "FM",
        "NA",
        "NR",
        "NE",
        "PW",
        "PG",
        "PR",
        "WS",
        "SM",
        "ST",
        "SN",
        "SC",
        "SL",
        "SB",
        "KN",
        "LC",
        "VC",
        "SR",
        "TL",
        "TO",
        "TT",
        "TV",
        "VU",
        "AZ",
        "BN",
        "BI",
        "KH",
        "CM",
        "TD",
        "KM",
        "GQ",
        "SZ",
        "GA",
        "GN",
        "KG",
        "LA",
        "MO",
        "MR",
        "MN",
        "NP",
        "RW",
        "TG",
        "UZ",
        "ZW",
        "BJ",
        "MG",
        "MU",
        "MZ",
        "AO",
        "CI",
        "DJ",
        "ZM",
        "CD",
        "CG",
        "IQ",
        "LY",
        "TJ",
        "VE",
        "ET",
        "XK"
      ],
      "external_urls": {
        "spotify": "https://open.spotify.com/album/3qeiGA41TE7NWvwYEXFMmU"
      },
      "href": "https://api.spotify.com/v1/albums/3qeiGA41TE7NWvwYEXFMmU",
      "id": "3qeiGA41TE7NWvwYEXFMmU",
      "images": [
        {
          "url": "https://i.scdn.co/image/ab67616d0000b2731f825aa1e86876955f0267a9",
          "height": 640,
          "width": 640
        },
        {
          "url": "https://i.scdn.co/image/ab67616d00001e021f825aa1e86876955f0267a9",
          "height": 300,
          "width": 300
        },
        {
          "url": "https://i.scdn.co/image/ab67616d000048511f825aa1e86876955f0267a9",
          "height": 64,
          "width": 64
        }
      ],
      "name": "再見你好嗎",
      "release_date": "2017-05-31",
      "release_date_precision": "day",
      "type": "album",
      "uri": "spotify:album:3qeiGA41TE7NWvwYEXFMmU",
      "artists": [
        {
          "external_urls": {
            "spotify": "https://open.spotify.com/artist/40tNK2YedBV2jRFAHxpifB"
          },
          "href": "https://api.spotify.com/v1/artists/40tNK2YedBV2jRFAHxpifB",
          "id": "40tNK2YedBV2jRFAHxpifB",
          "name": "陶喆",
          "type": "artist",
          "uri": "spotify:artist:40tNK2YedBV2jRFAHxpifB"
        }
      ],
      "album_group": "album"
    },
    {
      "album_type": "album",
      "total_tracks": 13,
      "available_markets": [
        "AR",
        "AU",
        "AT",
        "BE",
        "BO",
        "BR",
        "BG",
        "CA",
        "CL",
        "CO",
        "CR",
        "CY",
        "CZ",
        "DK",
        "DO",
        "DE",
        "EC",
        "EE",
        "SV",
        "FI",
        "FR",
        "GR",
        "GT",
        "HN",
        "HK",
        "HU",
        "IS",
        "IE",
        "IT",
        "LV",
        "LT",
        "LU",
        "MY",
        "MT",
        "MX",
        "NL",
        "NZ",
        "NI",
        "NO",
        "PA",
        "PY",
        "PE",
        "PH",
        "PL",
        "PT",
        "SG",
        "SK",
        "ES",
        "SE",
        "CH",
        "TW",
        "TR",
        "UY",
        "US",
        "GB",
        "AD",
        "LI",
        "MC",
        "ID",
        "JP",
        "TH",
        "VN",
        "RO",
        "IL",
        "ZA",
        "SA",
        "AE",
        "BH",
        "QA",
        "OM",
        "KW",
        "EG",
        "MA",
        "DZ",
        "TN",
        "LB",
        "JO",
        "PS",
        "IN",
        "BY",
        "KZ",
        "MD",
        "UA",
        "AL",
        "BA",
        "HR",
        "ME",
        "MK",
        "RS",
        "SI",
        "KR",
        "BD",
        "PK",
        "LK",
        "GH",
        "KE",
        "NG",
        "TZ",
        "UG",
        "AG",
        "AM",
        "BS",
        "BB",
        "BZ",
        "BT",
        "BW",
        "BF",
        "CV",
        "CW",
        "DM",
        "FJ",
        "GM",
        "GE",
        "GD",
        "GW",
        "GY",
        "HT",
        "JM",
        "KI",
        "LS",
        "LR",
        "MW",
        "MV",
        "ML",
        "MH",
        "FM",
        "NA",
        "NR",
        "NE",
        "PW",
        "PG",
        "PR",
        "WS",
        "SM",
        "ST",
        "SN",
        "SC",
        "SL",
        "SB",
        "KN",
        "LC",
        "VC",
        "SR",
        "TL",
        "TO",
        "TT",
        "TV",
        "VU",
        "AZ",
        "BN",
        "BI",
        "KH",
        "CM",
        "TD",
        "KM",
        "GQ",
        "SZ",
        "GA",
        "GN",
        "KG",
        "LA",
        "MO",
        "MR",
        "MN",
        "NP",
        "RW",
        "TG",
        "UZ",
        "ZW",
        "BJ",
        "MG",
        "MU",
        "MZ",
        "AO",
        "CI",
        "DJ",
        "ZM",
        "CD",
        "CG",
        "IQ",
        "LY",
        "TJ",
        "VE",
        "ET",
        "XK"
      ],
      "external_urls": {
        "spotify": "https://open.spotify.com/album/3XDrSDvZShMZQ90VksNPSh"
      },
      "href": "https://api.spotify.com/v1/albums/3XDrSDvZShMZQ90VksNPSh",
      "id": "3XDrSDvZShMZQ90VksNPSh",
      "images": [
        {
          "url": "https://i.scdn.co/image/ab67616d0000b273547da2386f564aa98f00d752",
          "height": 640,
          "width": 640
        },
        {
          "url": "https://i.scdn.co/image/ab67616d00001e02547da2386f564aa98f00d752",
          "height": 300,
          "width": 300
        },
        {
          "url": "https://i.scdn.co/image/ab67616d00004851547da2386f564aa98f00d752",
          "height": 64,
          "width": 64
        }
      ],
      "name": "六九樂章",
      "release_date": "2009-08-04",
      "release_date_precision": "day",
      "type": "album",
      "uri": "spotify:album:3XDrSDvZShMZQ90VksNPSh",
      "artists": [
        {
          "external_urls": {
            "spotify": "https://open.spotify.com/artist/40tNK2YedBV2jRFAHxpifB"
          },
          "href": "https://api.spotify.com/v1/artists/40tNK2YedBV2jRFAHxpifB",
          "id": "40tNK2YedBV2jRFAHxpifB",
          "name": "陶喆",
          "type": "artist",
          "uri": "spotify:artist:40tNK2YedBV2jRFAHxpifB"
        }
      ],
      "album_group": "album"
    },
    {
      "album_type": "album",
      "total_tracks": 13,
      "available_markets": [
        "AR",
        "AU",
        "AT",
        "BE",
        "BO",
        "BR",
        "BG",
        "CA",
        "CL",
        "CO",
        "CR",
        "CY",
        "CZ",
        "DK",
        "DO",
        "DE",
        "EC",
        "EE",
        "SV",
        "FI",
        "FR",
        "GR",
        "GT",
        "HN",
        "HK",
        "HU",
        "IS",
        "IE",
        "IT",
        "LV",
        "LT",
        "LU",
        "MY",
        "MT",
        "MX",
        "NL",
        "NZ",
        "NI",
        "NO",
        "PA",
        "PY",
        "PE",
        "PH",
        "PL",
        "PT",
        "SG",
        "SK",
        "ES",
        "SE",
        "CH",
        "TW",
        "TR",
        "UY",
        "US",
        "GB",
        "AD",
        "LI",
        "MC",
        "ID",
        "JP",
        "TH",
        "VN",
        "RO",
        "IL",
        "ZA",
        "SA",
        "AE",
        "BH",
        "QA",
        "OM",
        "KW",
        "EG",
        "MA",
        "DZ",
        "TN",
        "LB",
        "JO",
        "PS",
        "IN",
        "BY",
        "KZ",
        "MD",
        "UA",
        "AL",
        "BA",
        "HR",
        "ME",
        "MK",
        "RS",
        "SI",
        "KR",
        "BD",
        "PK",
        "LK",
        "GH",
        "KE",
        "NG",
        "TZ",
        "UG",
        "AG",
        "AM",
        "BS",
        "BB",
        "BZ",
        "BT",
        "BW",
        "BF",
        "CV",
        "CW",
        "DM",
        "FJ",
        "GM",
        "GE",
        "GD",
        "GW",
        "GY",
        "HT",
        "JM",
        "KI",
        "LS",
        "LR",
        "MW",
        "MV",
        "ML",
        "MH",
        "FM",
        "NA",
        "NR",
        "NE",
        "PW",
        "PG",
        "PR",
        "WS",
        "SM",
        "ST",
        "SN",
        "SC",
        "SL",
        "SB",
        "KN",
        "LC",
        "VC",
        "SR",
        "TL",
        "TO",
        "TT",
        "TV",
        "VU",
        "AZ",
        "BN",
        "BI",
        "KH",
        "CM",
        "TD",
        "KM",
        "GQ",
        "SZ",
        "GA",
        "GN",
        "KG",
        "LA",
        "MO",
        "MR",
        "MN",
        "NP",
        "RW",
        "TG",
        "UZ",
        "ZW",
        "BJ",
        "MG",
        "MU",
        "MZ",
        "AO",
        "CI",
        "DJ",
        "ZM",
        "CD",
        "CG",
        "IQ",
        "LY",
        "TJ",
        "VE",
        "ET",
        "XK"
      ],
      "external_urls": {
        "spotify": "https://open.spotify.com/album/46N0w5RaWwCBgdEaCjQpv5"
      },
      "href": "https://api.spotify.com/v1/albums/46N0w5RaWwCBgdEaCjQpv5",
      "id": "46N0w5RaWwCBgdEaCjQpv5",
      "images": [
        {
          "url": "https://i.scdn.co/image/ab67616d0000b273e9bd728f408d2e97299c76dd",
          "height": 640,
          "width": 640
        },
        {
          "url": "https://i.scdn.co/image/ab67616d00001e02e9bd728f408d2e97299c76dd",
          "height": 300,
          "width": 300
        },
        {
          "url": "https://i.scdn.co/image/ab67616d00004851e9bd728f408d2e97299c76dd",
          "height": 64,
          "width": 64
        }
      ],
      "name": "太美麗",
      "release_date": "2006-07-31",
      "release_date_precision": "day",
      "type": "album",
      "uri": "spotify:album:46N0w5RaWwCBgdEaCjQpv5",
      "artists": [
        {
          "external_urls": {
            "spotify": "https://open.spotify.com/artist/40tNK2YedBV2jRFAHxpifB"
          },
          "href": "https://api.spotify.com/v1/artists/40tNK2YedBV2jRFAHxpifB",
          "id": "40tNK2YedBV2jRFAHxpifB",
          "name": "陶喆",
          "type": "artist",
          "uri": "spotify:artist:40tNK2YedBV2jRFAHxpifB"
        }
      ],
      "album_group": "album"
    },
    {
      "album_type": "album",
      "total_tracks": 13,
      "available_markets": [
        "AR",
        "AU",
        "AT",
        "BE",
        "BO",
        "BR",
        "BG",
        "CA",
        "CL",
        "CO",
        "CR",
        "CY",
        "CZ",
        "DK",
        "DO",
        "DE",
        "EC",
        "EE",
        "SV",
        "FI",
        "FR",
        "GR",
        "GT",
        "HN",
        "HK",
        "HU",
        "IS",
        "IE",
        "IT",
        "LV",
        "LT",
        "LU",
        "MY",
        "MT",
        "MX",
        "NL",
        "NZ",
        "NI",
        "NO",
        "PA",
        "PY",
        "PE",
        "PH",
        "PL",
        "PT",
        "SG",
        "SK",
        "ES",
        "SE",
        "CH",
        "TW",
        "TR",
        "UY",
        "US",
        "GB",
        "AD",
        "LI",
        "MC",
        "ID",
        "JP",
        "TH",
        "VN",
        "RO",
        "IL",
        "ZA",
        "SA",
        "AE",
        "BH",
        "QA",
        "OM",
        "KW",
        "EG",
        "MA",
        "DZ",
        "TN",
        "LB",
        "JO",
        "PS",
        "IN",
        "BY",
        "KZ",
        "MD",
        "UA",
        "AL",
        "BA",
        "HR",
        "ME",
        "MK",
        "RS",
        "SI",
        "KR",
        "BD",
        "PK",
        "LK",
        "GH",
        "KE",
        "NG",
        "TZ",
        "UG",
        "AG",
        "AM",
        "BS",
        "BB",
        "BZ",
        "BT",
        "BW",
        "BF",
        "CV",
        "CW",
        "DM",
        "FJ",
        "GM",
        "GE",
        "GD",
        "GW",
        "GY",
        "HT",
        "JM",
        "KI",
        "LS",
        "LR",
        "MW",
        "MV",
        "ML",
        "MH",
        "FM",
        "NA",
        "NR",
        "NE",
        "PW",
        "PG",
        "PR",
        "WS",
        "SM",
        "ST",
        "SN",
        "SC",
        "SL",
        "SB",
        "KN",
        "LC",
        "VC",
        "SR",
        "TL",
        "TO",
        "TT",
        "TV",
        "VU",
        "AZ",
        "BN",
        "BI",
        "KH",
        "CM",
        "TD",
        "KM",
        "GQ",
        "SZ",
        "GA",
        "GN",
        "KG",
        "LA",
        "MO",
        "MR",
        "MN",
        "NP",
        "RW",
        "TG",
        "UZ",
        "ZW",
        "BJ",
        "MG",
        "MU",
        "MZ",
        "AO",
        "CI",
        "DJ",
        "ZM",
        "CD",
        "CG",
        "IQ",
        "LY",
        "TJ",
        "VE",
        "ET",
        "XK"
      ],
      "external_urls": {
        "spotify": "https://open.spotify.com/album/1XnDRFsNxG12nZPRXNcPkU"
      },
      "href": "https://api.spotify.com/v1/albums/1XnDRFsNxG12nZPRXNcPkU",
      "id": "1XnDRFsNxG12nZPRXNcPkU",
      "images": [
        {
          "url": "https://i.scdn.co/image/ab67616d0000b273110af1ee291450d9e86a05a4",
          "height": 640,
          "width": 640
        },
        {
          "url": "https://i.scdn.co/image/ab67616d00001e02110af1ee291450d9e86a05a4",
          "height": 300,
          "width": 300
        },
        {
          "url": "https://i.scdn.co/image/ab67616d00004851110af1ee291450d9e86a05a4",
          "height": 64,
          "width": 64
        }
      ],
      "name": "太平盛世",
      "release_date": "2005-08-01",
      "release_date_precision": "day",
      "type": "album",
      "uri": "spotify:album:1XnDRFsNxG12nZPRXNcPkU",
      "artists": [
        {
          "external_urls": {
            "spotify": "https://open.spotify.com/artist/40tNK2YedBV2jRFAHxpifB"
          },
          "href": "https://api.spotify.com/v1/artists/40tNK2YedBV2jRFAHxpifB",
          "id": "40tNK2YedBV2jRFAHxpifB",
          "name": "陶喆",
          "type": "artist",
          "uri": "spotify:artist:40tNK2YedBV2jRFAHxpifB"
        }
      ],
      "album_group": "album"
    },
    {
      "album_type": "album",
      "total_tracks": 28,
      "available_markets": [
        "AR",
        "AU",
        "AT",
        "BE",
        "BO",
        "BR",
        "BG",
        "CA",
        "CL",
        "CO",
        "CR",
        "CY",
        "CZ",
        "DK",
        "DO",
        "DE",
        "EC",
        "EE",
        "SV",
        "FI",
        "FR",
        "GR",
        "GT",
        "HN",
        "HK",
        "HU",
        "IS",
        "IE",
        "IT",
        "LV",
        "LT",
        "LU",
        "MY",
        "MT",
        "MX",
        "NL",
        "NZ",
        "NI",
        "NO",
        "PA",
        "PY",
        "PE",
        "PH",
        "PL",
        "PT",
        "SG",
        "SK",
        "ES",
        "SE",
        "CH",
        "TW",
        "TR",
        "UY",
        "US",
        "GB",
        "AD",
        "LI",
        "MC",
        "ID",
        "JP",
        "TH",
        "VN",
        "RO",
        "IL",
        "ZA",
        "SA",
        "AE",
        "BH",
        "QA",
        "OM",
        "KW",
        "EG",
        "MA",
        "DZ",
        "TN",
        "LB",
        "JO",
        "PS",
        "IN",
        "BY",
        "KZ",
        "MD",
        "UA",
        "AL",
        "BA",
        "HR",
        "ME",
        "MK",
        "RS",
        "SI",
        "KR",
        "BD",
        "PK",
        "LK",
        "GH",
        "KE",
        "NG",
        "TZ",
        "UG",
        "AG",
        "AM",
        "BS",
        "BB",
        "BZ",
        "BT",
        "BW",
        "BF",
        "CV",
        "CW",
        "DM",
        "FJ",
        "GM",
        "GE",
        "GD",
        "GW",
        "GY",
        "HT",
        "JM",
        "KI",
        "LS",
        "LR",
        "MW",
        "MV",
        "ML",
        "MH",
        "FM",
        "NA",
        "NR",
        "NE",
        "PW",
        "PG",
        "PR",
        "WS",
        "SM",
        "ST",
        "SN",
        "SC",
        "SL",
        "SB",
        "KN",
        "LC",
        "VC",
        "SR",
        "TL",
        "TO",
        "TT",
        "TV",
        "VU",
        "AZ",
        "BN",
        "BI",
        "KH",
        "CM",
        "TD",
        "KM",
        "GQ",
        "SZ",
        "GA",
        "GN",
        "KG",
        "LA",
        "MO",
        "MR",
        "MN",
        "NP",
        "RW",
        "TG",
        "UZ",
        "ZW",
        "BJ",
        "MG",
        "MU",
        "MZ",
        "AO",
        "CI",
        "DJ",
        "ZM",
        "CD",
        "CG",
        "IQ",
        "LY",
        "TJ",
        "VE",
        "ET",
        "XK"
      ],
      "external_urls": {
        "spotify": "https://open.spotify.com/album/4dKxGaRsGhkpzR58DGh5rq"
      },
      "href": "https://api.spotify.com/v1/albums/4dKxGaRsGhkpzR58DGh5rq",
      "id": "4dKxGaRsGhkpzR58DGh5rq",
      "images": [
        {
          "url": "https://i.scdn.co/image/ab67616d0000b273edfdb3d781e102b176000a88",
          "height": 640,
          "width": 640
        },
        {
          "url": "https://i.scdn.co/image/ab67616d00001e02edfdb3d781e102b176000a88",
          "height": 300,
          "width": 300
        },
        {
          "url": "https://i.scdn.co/image/ab67616d00004851edfdb3d781e102b176000a88",
          "height": 64,
          "width": 64
        }
      ],
      "name": "Soul Power (Live Concert)",
      "release_date": "2003-09-09",
      "release_date_precision": "day",
      "type": "album",
      "uri": "spotify:album:4dKxGaRsGhkpzR58DGh5rq",
      "artists": [
        {
          "external_urls": {
            "spotify": "https://open.spotify.com/artist/40tNK2YedBV2jRFAHxpifB"
          },
          "href": "https://api.spotify.com/v1/artists/40tNK2YedBV2jRFAHxpifB",
          "id": "40tNK2YedBV2jRFAHxpifB",
          "name": "陶喆",
          "type": "artist",
          "uri": "spotify:artist:40tNK2YedBV2jRFAHxpifB"
        }
      ],
      "album_group": "album"
    },
    {
      "album_type": "album",
      "total_tracks": 23,
      "available_markets": [
        "AR",
        "AU",
        "AT",
        "BE",
        "BO",
        "BR",
        "BG",
        "CA",
        "CL",
        "CO",
        "CR",
        "CY",
        "CZ",
        "DK",
        "DO",
        "DE",
        "EC",
        "EE",
        "SV",
        "FI",
        "FR",
        "GR",
        "GT",
        "HN",
        "HK",
        "HU",
        "IS",
        "IE",
        "IT",
        "LV",
        "LT",
        "LU",
        "MY",
        "MT",
        "MX",
        "NL",
        "NZ",
        "NI",
        "NO",
        "PA",
        "PY",
        "PE",
        "PH",
        "PL",
        "PT",
        "SG",
        "SK",
        "ES",
        "SE",
        "CH",
        "TW",
        "TR",
        "UY",
        "US",
        "GB",
        "AD",
        "LI",
        "MC",
        "ID",
        "JP",
        "TH",
        "VN",
        "RO",
        "IL",
        "ZA",
        "SA",
        "AE",
        "BH",
        "QA",
        "OM",
        "KW",
        "EG",
        "MA",
        "DZ",
        "TN",
        "LB",
        "JO",
        "PS",
        "IN",
        "BY",
        "KZ",
        "MD",
        "UA",
        "AL",
        "BA",
        "HR",
        "ME",
        "MK",
        "RS",
        "SI",
        "KR",
        "BD",
        "PK",
        "LK",
        "GH",
        "KE",
        "NG",
        "TZ",
        "UG",
        "AG",
        "AM",
        "BS",
        "BB",
        "BZ",
        "BT",
        "BW",
        "BF",
        "CV",
        "CW",
        "DM",
        "FJ",
        "GM",
        "GE",
        "GD",
        "GW",
        "GY",
        "HT",
        "JM",
        "KI",
        "LS",
        "LR",
        "MW",
        "MV",
        "ML",
        "MH",
        "FM",
        "NA",
        "NR",
        "NE",
        "PW",
        "PG",
        "PR",
        "WS",
        "SM",
        "ST",
        "SN",
        "SC",
        "SL",
        "SB",
        "KN",
        "LC",
        "VC",
        "SR",
        "TL",
        "TO",
        "TT",
        "TV",
        "VU",
        "AZ",
        "BN",
        "BI",
        "KH",
        "CM",
        "TD",
        "KM",
        "GQ",
        "SZ",
        "GA",
        "GN",
        "KG",
        "LA",
        "MO",
        "MR",
        "MN",
        "NP",
        "RW",
        "TG",
        "UZ",
        "ZW",
        "BJ",
        "MG",
        "MU",
        "MZ",
        "AO",
        "CI",
        "DJ",
        "ZM",
        "CD",
        "CG",
        "IQ",
        "LY",
        "TJ",
        "VE",
        "ET",
        "XK"
      ],
      "external_urls": {
        "spotify": "https://open.spotify.com/album/77AgHl7qsf2sDVuiTWDaRe"
      },
      "href": "https://api.spotify.com/v1/albums/77AgHl7qsf2sDVuiTWDaRe",
      "id": "77AgHl7qsf2sDVuiTWDaRe",
      "images": [
        {
          "url": "https://i.scdn.co/image/ab67616d0000b273b2d44856de24ae9f8cbd64a3",
          "height": 640,
          "width": 640
        },
        {
          "url": "https://i.scdn.co/image/ab67616d00001e02b2d44856de24ae9f8cbd64a3",
          "height": 300,
          "width": 300
        },
        {
          "url": "https://i.scdn.co/image/ab67616d00004851b2d44856de24ae9f8cbd64a3",
          "height": 64,
          "width": 64
        }
      ],
      "name": "樂之路",
      "release_date": "2003-04-02",
      "release_date_precision": "day",
      "type": "album",
      "uri": "spotify:album:77AgHl7qsf2sDVuiTWDaRe",
      "artists": [
        {
          "external_urls": {
            "spotify": "https://open.spotify.com/artist/40tNK2YedBV2jRFAHxpifB"
          },
          "href": "https://api.spotify.com/v1/artists/40tNK2YedBV2jRFAHxpifB",
          "id": "40tNK2YedBV2jRFAHxpifB",
          "name": "陶喆",
          "type": "artist",
          "uri": "spotify:artist:40tNK2YedBV2jRFAHxpifB"
        }
      ],
      "album_group": "album"
    }
  ]
}
