{
  "href": "https://api.spotify.com/v1/artists/40tNK2YedBV2jRFAHxpifB/albums?offset=0&limit=7&locale=zh-CN,zh;q%3D0.9,en;q%3D0.8&include_groups=appears_on",
  "limit": 7,
  "next": "https://api.spotify.com/v1/artists/40tNK2YedBV2jRFAHxpifB/albums?offset=7&limit=7&locale=zh-CN,zh;q%3D0.9,en;q%3D0.8&include_groups=appears_on",
  "offset": 0,
  "previous": null,
  "total": 26,
  "items": [
    {
      "album_type": "compilation",
      "total_tracks": 8,
      "available_markets": [
        "AR",
        "AU",
        "AT",
        "BE",
        "BO",
        "BR",
        "BG",
        "CA",
        "CL",
        "CO",
        "CR",
        "CY",
        "CZ",
        "DK",
        "DO",
        "DE",
        "EC",
        "EE",
        "SV",
        "FI",
        "FR",
        "GR",
        "GT",
        "HN",
        "HK",
        "HU",
        "IS",
        "IE",
        "IT",
        "LV",
        "LT",
        "LU",
        "MY",
        "MT",
        "MX",
        "NL",
        "NZ",
        "NI",
        "NO",
        "PA",
        "PY",
        "PE",
        "PH",
        "PL",
        "PT",
        "SG",
        "SK",
        "ES",
        "SE",
        "CH",
        "TW",
        "TR",
        "UY",
        "US",
        "GB",
        "AD",
        "LI",
        "MC",
        "ID",
        "JP",
        "TH",
        "VN",
        "RO",
        "IL",
        "ZA",
        "SA",
        "AE",
        "BH",
        "QA",
        "OM",
        "KW",
        "EG",
        "MA",
        "DZ",
        "TN",
        "LB",
        "JO",
        "PS",
        "IN",
        "BY",
        "KZ",
        "MD",
        "UA",
        "AL",
        "BA",
        "HR",
        "ME",
        "MK",
        "RS",
        "SI",
        "KR",
        "BD",
        "PK",
        "LK",
        "GH",
        "KE",
        "NG",
        "TZ",
        "UG",
        "AG",
        "AM",
        "BS",
        "BB",
        "BZ",
        "BT",
        "BW",
        "BF",
        "CV",
        "CW",
        "DM",
        "FJ",
        "GM",
        "GE",
        "GD",
        "GW",
        "GY",
        "HT",
        "JM",
        "KI",
        "LS",
        "LR",
        "MW",
        "MV",
        "ML",
        "MH",
        "FM",
        "NA",
        "NR",
        "NE",
        "PW",
        "PG",
        "PR",
        "WS",
        "SM",
        "ST",
        "SN",
        "SC",
        "SL",
        "SB",
        "KN",
        "LC",
        "VC",
        "SR",
        "TL",
        "TO",
        "TT",
        "TV",
        "VU",
        "AZ",
        "BN",
        "BI",
        "KH",
        "CM",
        "TD",
        "KM",
        "GQ",
        "SZ",
        "GA",
        "GN",
        "KG",
        "LA",
        "MO",
        "MR",
        "MN",
        "NP",
        "RW",
        "TG",
        "UZ",
        "ZW",
        "BJ",
        "MG",
        "MU",
        "MZ",
        "AO",
        "CI",
        "DJ",
        "ZM",
        "CD",
        "CG",
        "IQ",
        "LY",
        "TJ",
        "VE",
        "ET",
        "XK"
      ],
      "external_urls": {
        "spotify": "https://open.spotify.com/album/6gmjU1NhnL9UHJuftbGO0r"
      },
      "href": "https://api.spotify.com/v1/albums/6gmjU1NhnL9UHJuftbGO0r",
      "id": "6gmjU1NhnL9UHJuftbGO0r",
      "images": [
        {
          "url": "https://i.scdn.co/image/ab67616d0000b273192a6d6ea3a6e3739d02403b",
          "height": 640,
          "width": 640
        },
        {
          "url": "https://i.scdn.co/image/ab67616d00001e02192a6d6ea3a6e3739d02403b",
          "height": 300,
          "width": 300
        },
        {
          "url": "https://i.scdn.co/image/ab67616d00004851192a6d6ea3a6e3739d02403b",
          "height": 64,
          "width": 64
        }
      ],
      "name": "天赐的声音第五季 第6期 (Live)",
      "release_date": "2024-05-31",
      "release_date_precision": "day",
      "type": "album",
      "uri": "spotify:album:6gmjU1NhnL9UHJuftbGO0r",
      "artists": [
        {
          "external_urls": {
            "spotify": "https://open.spotify.com/artist/0LyfQWJT6nXafLPZqxe9Of"
          },
          "href": "https://api.spotify.com/v1/artists/0LyfQWJT6nXafLPZqxe9Of",
          "id": "0LyfQWJT6nXafLPZqxe9Of",
          "name": "群星",
          "type": "artist",
          "uri": "spotify:artist:0LyfQWJT6nXafLPZqxe9Of"
        }
      ],
      "album_group": "appears_on"
    },
    {
      "album_type": "compilation",
      "total_tracks": 8,
      "available_markets": [
        "AR",
        "AU",
        "AT",
        "BE",
        "BO",
        "BR",
        "BG",
        "CA",
        "CL",
        "CO",
        "CR",
        "CY",
        "CZ",
        "DK",
        "DO",
        "DE",
        "EC",
        "EE",
        "SV",
        "FI",
        "FR",
        "GR",
        "GT",
        "HN",
        "HK",
        "HU",
        "IS",
        "IE",
        "IT",
        "LV",
        "LT",
        "LU",
        "MY",
        "MT",
        "MX",
        "NL",
        "NZ",
        "NI",
        "NO",
        "PA",
        "PY",
        "PE",
        "PH",
        "PL",
        "PT",
        "SG",
        "SK",
        "ES",
        "SE",
        "CH",
        "TW",
        "TR",
        "UY",
        "US",
        "GB",
        "AD",
        "LI",
        "MC",
        "ID",
        "JP",
        "TH",
        "VN",
        "RO",
        "IL",
        "ZA",
        "SA",
        "AE",
        "BH",
        "QA",
        "OM",
        "KW",
        "EG",
        "MA",
        "DZ",
        "TN",
        "LB",
        "JO",
        "PS",
        "IN",
        "BY",
        "KZ",
        "MD",
        "UA",
        "AL",
        "BA",
        "HR",
        "ME",
        "MK",
        "RS",
        "SI",
        "KR",
        "BD",
        "PK",
        "LK",
        "GH",
        "KE",
        "NG",
        "TZ",
        "UG",
        "AG",
        "AM",
        "BS",
        "BB",
        "BZ",
        "BT",
        "BW",
        "BF",
        "CV",
        "CW",
        "DM",
        "FJ",
        "GM",
        "GE",
        "GD",
        "GW",
        "GY",
        "HT",
        "JM",
        "KI",
        "LS",
        "LR",
        "MW",
        "MV",
        "ML",
        "MH",
        "FM",
        "NA",
        "NR",
        "NE",
        "PW",
        "PG",
        "PR",
        "WS",
        "SM",
        "ST",
        "SN",
        "SC",
        "SL",
        "SB",
        "KN",
        "LC",
        "VC",
        "SR",
        "TL",
        "TO",
        "TT",
        "TV",
        "VU",
        "AZ",
        "BN",
        "BI",
        "KH",
        "CM",
        "TD",
        "KM",
        "GQ",
        "SZ",
        "GA",
        "GN",
        "KG",
        "LA",
        "MO",
        "MR",
        "MN",
        "NP",
        "RW",
        "TG",
        "UZ",
        "ZW",
        "BJ",
        "MG",
        "MU",
        "MZ",
        "AO",
        "CI",
        "DJ",
        "ZM",
        "CD",
        "CG",
        "IQ",
        "LY",
        "TJ",
        "VE",
        "ET",
        "XK"
      ],
      "external_urls": {
        "spotify": "https://open.spotify.com/album/7tNCB8A4gz2gGwbWqZ0yPZ"
      },
      "href": "https://api.spotify.com/v1/albums/7tNCB8A4gz2gGwbWqZ0yPZ",
      "id": "7tNCB8A4gz2gGwbWqZ0yPZ",
      "images": [
        {
          "url": "https://i.scdn.co/image/ab67616d0000b273596949d6b04d6ff8d802df86",
          "height": 640,
          "width": 640
        },
        {
          "url": "https://i.scdn.co/image/ab67616d00001e02596949d6b04d6ff8d802df86",
          "height": 300,
          "width": 300
        },
        {
          "url": "https://i.scdn.co/image/ab67616d00004851596949d6b04d6ff8d802df86",
          "height": 64,
          "width": 64
        }
      ],
      "name": "蒙面唱将猜猜猜第二季 第4期 (Live)",
      "release_date": "2017-09-24",
      "release_date_precision": "day",
      "type": "album",
      "uri": "spotify:album:7tNCB8A4gz2gGwbWqZ0yPZ",
      "artists": [
        {
          "external_urls": {
            "spotify": "https://open.spotify.com/artist/0LyfQWJT6nXafLPZqxe9Of"
          },
          "href": "https://api.spotify.com/v1/artists/0LyfQWJT6nXafLPZqxe9Of",
          "id": "0LyfQWJT6nXafLPZqxe9Of",
          "name": "群星",
          "type": "artist",
          "uri": "spotify:artist:0LyfQWJT6nXafLPZqxe9Of"
        }
      ],
      "album_group": "appears_on"
    },
    {
      "album_type": "compilation",
      "total_tracks": 13,
      "available_markets": [
        "AR",
        "AU",
        "AT",
        "BE",
        "BO",
        "BR",
        "BG",
        "CA",
        "CL",
        "CO",
        "CR",
        "CY",
        "CZ",
        "DK",
        "DO",
        "DE",
        "EC",
        "EE",
        "SV",
        "FI",
        "FR",
        "GR",
        "GT",
        "HN",
        "HK",
        "HU",
        "IS",
        "IE",
        "IT",
        "LV",
        "LT",
        "LU",
        "MY",
        "MT",
        "MX",
        "NL",
        "NZ",
        "NI",
        "NO",
        "PA",
        "PY",
        "PE",
        "PH",
        "PL",
        "PT",
        "SG",
        "SK",
        "ES",
        "SE",
        "CH",
        "TW",
        "TR",
        "UY",
        "US",
        "GB",
        "AD",
        "LI",
        "MC",
        "ID",
        "JP",
        "TH",
        "VN",
        "RO",
        "IL",
        "ZA",
        "SA",
        "AE",
        "BH",
        "QA",
        "OM",
        "KW",
        "EG",
        "MA",
        "DZ",
        "TN",
        "LB",
        "JO",
        "PS",
        "IN",
        "BY",
        "KZ",
        "MD",
        "UA",
        "AL",
        "BA",
        "HR",
        "ME",
        "MK",
        "RS",
        "SI",
        "KR",
        "BD",
        "PK",
        "LK",
        "GH",
        "KE",
        "NG",
        "TZ",
        "UG",
        "AG",
        "AM",
        "BS",
        "BB",
        "BZ",
        "BT",
        "BW",
        "BF",
        "CV",
        "CW",
        "DM",
        "FJ",
        "GM",
        "GE",
        "GD",
        "GW",
        "GY",
        "HT",
        "JM",
        "KI",
        "LS",
        "LR",
        "MW",
        "MV",
        "ML",
        "MH",
        "FM",
        "NA",
        "NR",
        "NE",
        "PW",
        "PG",
        "PR",
        "WS",
        "SM",
        "ST",
        "SN",
        "SC",
        "SL",
        "SB",
        "KN",
        "LC",
        "VC",
        "SR",
        "TL",
        "TO",
        "TT",
        "TV",
        "VU",
        "AZ",
        "BN",
        "BI",
        "KH",
        "CM",
        "TD",
        "KM",
        "GQ",
        "SZ",
        "GA",
        "GN",
        "KG",
        "LA",
        "MO",
        "MR",
        "MN",
        "NP",
        "RW",
        "TG",
        "UZ",
        "ZW",
        "BJ",
        "MG",
        "MU",
        "MZ",
        "AO",
        "CI",
        "DJ",
        "ZM",
        "CD",
        "CG",
        "IQ",
        "LY",
        "TJ",
        "VE",
        "ET",
        "XK"
      ],
      "external_urls": {
        "spotify": "https://open.spotify.com/album/5dWkmfe3p0pRhAAaIItxdN"
      },
      "href": "https://api.spotify.com/v1/albums/5dWkmfe3p0pRhAAaIItxdN",
      "id": "5dWkmfe3p0pRhAAaIItxdN",
      "images": [
        {
          "url": "https://i.scdn.co/image/ab67616d0000b27301003fc314af227a59e8b1fb",
          "height": 640,
          "width": 640
        },
        {
          "url": "https://i.scdn.co/image/ab67616d00001e0201003fc314af227a59e8b1fb",
          "height": 300,
          "width": 300
        },
        {
          "url": "https://i.scdn.co/image/ab67616d0000485101003fc314af227a59e8b1fb",
          "height": 64,
          "width": 64
        }
      ],
      "name": "我是歌手第三季 - 第十三期 Live",
      "release_date": "2015-03-27",
      "release_date_precision": "day",
      "type": "album",
      "uri": "spotify:album:5dWkmfe3p0pRhAAaIItxdN",
      "artists": [
        {
          "external_urls": {
            "spotify": "https://open.spotify.com/artist/0LyfQWJT6nXafLPZqxe9Of"
          },
          "href": "https://api.spotify.com/v1/artists/0LyfQWJT6nXafLPZqxe9Of",
          "id": "0LyfQWJT6nXafLPZqxe9Of",
          "name": "群星",
          "type": "artist",
          "uri": "spotify:artist:0LyfQWJT6nXafLPZqxe9Of"
        }
      ],
      "album_group": "appears_on"
    },
    {
      "album_type": "compilation",
      "total_tracks": 7,
      "available_markets": [
        "AR",
        "AU",
        "AT",
        "BE",
        "BO",
        "BR",
        "BG",
        "CA",
        "CL",
        "CO",
        "CR",
        "CY",
        "CZ",
        "DK",
        "DO",
        "DE",
        "EC",
        "EE",
        "SV",
        "FI",
        "FR",
        "GR",
        "GT",
        "HN",
        "HK",
        "HU",
        "IS",
        "IE",
        "IT",
        "LV",
        "LT",
        "LU",
        "MY",
        "MT",
        "MX",
        "NL",
        "NZ",
        "NI",
        "NO",
        "PA",
        "PY",
        "PE",
        "PH",
        "PL",
        "PT",
        "SG",
        "SK",
        "ES",
        "SE",
        "CH",
        "TW",
        "TR",
        "UY",
        "US",
        "GB",
        "AD",
        "LI",
        "MC",
        "ID",
        "JP",
        "TH",
        "VN",
        "RO",
        "IL",
        "ZA",
        "SA",
        "AE",
        "BH",
        "QA",
        "OM",
        "KW",
        "EG",
        "MA",
        "DZ",
        "TN",
        "LB",
        "JO",
        "PS",
        "IN",
        "BY",
        "KZ",
        "MD",
        "UA",
        "AL",
        "BA",
        "HR",
        "ME",
        "MK",
        "RS",
        "SI",
        "KR",
        "BD",
        "PK",
        "LK",
        "GH",
        "KE",
        "NG",
        "TZ",
        "UG",
        "AG",
        "AM",
        "BS",
        "BB",
        "BZ",
        "BT",
        "BW",
        "BF",
        "CV",
        "CW",
        "DM",
        "FJ",
        "GM",
        "GE",
        "GD",
        "GW",
        "GY",
        "HT",
        "JM",
        "KI",
        "LS",
        "LR",
        "MW",
        "MV",
        "ML",
        "MH",
        "FM",
        "NA",
        "NR",
        "NE",
        "PW",
        "PG",
        "PR",
        "WS",
        "SM",
        "ST",
        "SN",
        "SC",
        "SL",
        "SB",
        "KN",
        "LC",
        "VC",
        "SR",
        "TL",
        "TO",
        "TT",
        "TV",
        "VU",
        "AZ",
        "BN",
        "BI",
        "KH",
        "CM",
        "TD",
        "KM",
        "GQ",
        "SZ",
        "GA",
        "GN",
        "KG",
        "LA",
        "MO",
        "MR",
        "MN",
        "NP",
        "RW",
        "TG",
        "UZ",
        "ZW",
        "BJ",
        "MG",
        "MU",
        "MZ",
        "AO",
        "CI",
        "DJ",
        "ZM",
        "CD",
        "CG",
        "IQ",
        "LY",
        "TJ",
        "VE",
        "ET",
        "XK"
      ],
      "external_urls": {
        "spotify": "https://open.spotify.com/album/1ZX4tzUAk4hpGUhbsxvhFy"
      },
      "href": "https://api.spotify.com/v1/albums/1ZX4tzUAk4hpGUhbsxvhFy",
      "id": "1ZX4tzUAk4hpGUhbsxvhFy",
      "images": [
        {
          "url": "https://i.scdn.co/image/ab67616d0000b273fc7a8c62cfd55641bda8c999",
          "height": 640,
          "width": 640
        },
        {
          "url": "https://i.scdn.co/image/ab67616d00001e02fc7a8c62cfd55641bda8c999",
          "height": 300,
          "width": 300
        },
        {
          "url": "https://i.scdn.co/image/ab67616d00004851fc7a8c62cfd55641bda8c999",
          "height": 64,
          "width": 64
        }
      ],
      "name": "中国好歌曲 第三季 第1期 (Live)",
      "release_date": "2016-01-29",
      "release_date_precision": "day",
      "type": "album",
      "uri": "spotify:album:1ZX4tzUAk4hpGUhbsxvhFy",
      "artists": [
        {
          "external_urls": {
            "spotify": "https://open.spotify.com/artist/0LyfQWJT6nXafLPZqxe9Of"
          },
          "href": "https://api.spotify.com/v1/artists/0LyfQWJT6nXafLPZqxe9Of",
          "id": "0LyfQWJT6nXafLPZqxe9Of",
          "name": "群星",
          "type": "artist",
          "uri": "spotify:artist:0LyfQWJT6nXafLPZqxe9Of"
        }
      ],
      "album_group": "appears_on"
    }
  ]
}
