{
  "categories": {
    "href": "https://api.spotify.com/v1/browse/categories?offset=0&limit=28&locale=zh-CN,zh;q%3D0.9,en;q%3D0.8",
    "items": [
      {
        "href": "https://api.spotify.com/v1/browse/categories/0JQ5DAt0tbjZptfcdMSKl3",
        "id": "0JQ5DAt0tbjZptfcdMSKl3",
        "icons": [
          {
            "height": 274,
            "url": "https://t.scdn.co/images/728ed47fc1674feb95f7ac20236eb6d7.jpeg",
            "width": 274
          }
        ],
        "name": "为你打造"
      },
      {
        "href": "https://api.spotify.com/v1/browse/categories/0JQ5DAqbMKFz6FAsUtgAab",
        "id": "0JQ5DAqbMKFz6FAsUtgAab",
        "icons": [
          {
            "height": 274,
            "url": "https://t.scdn.co/images/728ed47fc1674feb95f7ac20236eb6d7.jpeg",
            "width": 274
          }
        ],
        "name": "新歌热播"
      },
      {
        "href": "https://api.spotify.com/v1/browse/categories/0JQ5DAqbMKFDKyRxRDLIbk",
        "id": "0JQ5DAqbMKFDKyRxRDLIbk",
        "icons": [
          {
            "height": 274,
            "url": "https://t.scdn.co/images/dec76a385201436281efb6796a54f479.jpeg",
            "width": 274
          }
        ],
        "name": "欢乐假日"
      },
      {
        "href": "https://api.spotify.com/v1/browse/categories/0JQ5DAqbMKFGvOw3O4nLAf",
        "id": "0JQ5DAqbMKFGvOw3O4nLAf",
        "icons": [
          {
            "height": 274,
            "url": "https://t.scdn.co/images/2078afd91e4d431eb19efc5bee5ab131.jpeg",
            "width": 274
          }
        ],
        "name": "韩语流行"
      },
      {
        "href": "https://api.spotify.com/v1/browse/categories/0JQ5DAqbMKFI9pBj99rHhq",
        "id": "0JQ5DAqbMKFI9pBj99rHhq",
        "icons": [
          {
            "height": 274,
            "url": "https://t.scdn.co/media/categories/jtracks_274x274.jpg",
            "width": 274
          }
        ],
        "name": "日文歌曲"
      },
      {
        "href": "https://api.spotify.com/v1/browse/categories/0JQ5DAqbMKFEC4WFtoNRpw",
        "id": "0JQ5DAqbMKFEC4WFtoNRpw",
        "icons": [
          {
            "height": 274,
            "url": "https://t.scdn.co/media/derived/pop-274x274_447148649685019f5e2a03a39e78ba52_0_0_274_274.jpg",
            "width": 274
          }
        ],
        "name": "流行"
      },
      {
        "href": "https://api.spotify.com/v1/browse/categories/0JQ5DAudkNjCgYMM0TZXDw",
        "id": "0JQ5DAudkNjCgYMM0TZXDw",
        "icons": [
          {
            "height": 274,
            "url": "https://charts-images.scdn.co/spotify-charts-logos/music_charts_search_arrow_274x274.jpeg",
            "width": 274
          }
        ],
        "name": "排行榜"
      },
      {
        "href": "https://api.spotify.com/v1/browse/categories/0JQ5DAqbMKFQ00XGBls6ym",
        "id": "0JQ5DAqbMKFQ00XGBls6ym",
        "icons": [
          {
            "height": 274,
            "url": "https://t.scdn.co/images/728ed47fc1674feb95f7ac20236eb6d7.jpeg",
            "width": 274
          }
        ],
        "name": "嘻哈"
      },
      {
        "href": "https://api.spotify.com/v1/browse/categories/0JQ5DAqbMKFQhFc2AiRRCi",
        "id": "0JQ5DAqbMKFQhFc2AiRRCi",
        "icons": [
          {
            "height": 274,
            "url": "https://t.scdn.co/media/categories/cantopop_274x274.jpg",
            "width": 274
          }
        ],
        "name": "粤语流行"
      },
      {
        "href": "https://api.spotify.com/v1/browse/categories/0JQ5DAqbMKFC8BnkNHqcZw",
        "id": "0JQ5DAqbMKFC8BnkNHqcZw",
        "icons": [
          {
            "height": 274,
            "url": "https://t.scdn.co/images/fd2cdde10ea04ccfb10c902274be8815.jpeg",
            "width": 274
          }
        ],
        "name": "华语流行音乐"
      },
      {
        "href": "https://api.spotify.com/v1/browse/categories/0JQ5DAqbMKFDXXwE9BDJAr",
        "id": "0JQ5DAqbMKFDXXwE9BDJAr",
        "icons": [
          {
            "height": 274,
            "url": "https://t.scdn.co/media/derived/rock_9ce79e0a4ef901bbd10494f5b855d3cc_0_0_274_274.jpg",
            "width": 274
          }
        ],
        "name": "摇滚"
      },
      {
        "href": "https://api.spotify.com/v1/browse/categories/0JQ5DAtOnAEpjOgUKwXyxj",
        "id": "0JQ5DAtOnAEpjOgUKwXyxj",
        "icons": [
          {
            "height": 274,
            "url": "https://t.scdn.co/images/728ed47fc1674feb95f7ac20236eb6d7.jpeg",
            "width": 274
          }
        ],
        "name": "发现"
      },
      {
        "href": "https://api.spotify.com/v1/browse/categories/0JQ5DAqbMKFxXaXKP7zcDp",
        "id": "0JQ5DAqbMKFxXaXKP7zcDp",
        "icons": [
          {
            "height": 274,
            "url": "https://t.scdn.co/media/derived/latin-274x274_befbbd1fbb8e045491576e317cb16cdf_0_0_274_274.jpg",
            "width": 274
          }
        ],
        "name": "拉丁"
      },
      {
        "href": "https://api.spotify.com/v1/browse/categories/0JQ5DAqbMKFHOzuVTgTizF",
        "id": "0JQ5DAqbMKFHOzuVTgTizF",
        "icons": [
          {
            "height": 274,
            "url": "https://t.scdn.co/media/derived/edm-274x274_0ef612604200a9c14995432994455a6d_0_0_274_274.jpg",
            "width": 274
          }
        ],
        "name": "舞曲/电音"
      },
      {
        "href": "https://api.spotify.com/v1/browse/categories/0JQ5DAqbMKFzHmL4tf05da",
        "id": "0JQ5DAqbMKFzHmL4tf05da",
        "icons": [
          {
            "height": 274,
            "url": "https://t.scdn.co/media/original/mood-274x274_976986a31ac8c49794cbdc7246fd5ad7_274x274.jpg",
            "width": 274
          }
        ],
        "name": "情绪"
      },
      {
        "href": "https://api.spotify.com/v1/browse/categories/0JQ5DAqbMKFCWjUTdzaG0e",
        "id": "0JQ5DAqbMKFCWjUTdzaG0e",
        "icons": [
          {
            "height": 274,
            "url": "https://t.scdn.co/images/fe06caf056474bc58862591cd60b57fc.jpeg",
            "width": 274
          }
        ],
        "name": "独立音乐"
      },
      {
        "href": "https://api.spotify.com/v1/browse/categories/0JQ5DAqbMKFAXlCG6QvYQ4",
        "id": "0JQ5DAqbMKFAXlCG6QvYQ4",
        "icons": [
          {
            "height": 274,
            "url": "https://t.scdn.co/media/links/workout-274x274.png",
            "width": 274
          }
        ],
        "name": "锻炼"
      },
      {
        "href": "https://api.spotify.com/v1/browse/categories/0JQ5DAqbMKFKLfwjuJMoNC",
        "id": "0JQ5DAqbMKFKLfwjuJMoNC",
        "icons": [
          {
            "height": 274,
            "url": "https://t.scdn.co/images/a2e0ebe2ebed4566ba1d8236b869241f.jpeg",
            "width": 274
          }
        ],
        "name": "乡村"
      },
      {
        "href": "https://api.spotify.com/v1/browse/categories/0JQ5DAqbMKFEZPnFQSFB1T",
        "id": "0JQ5DAqbMKFEZPnFQSFB1T",
        "icons": [
          {
            "height": 274,
            "url": "https://t.scdn.co/media/derived/r-b-274x274_fd56efa72f4f63764b011b68121581d8_0_0_274_274.jpg",
            "width": 274
          }
        ],
        "name": "节奏蓝调"
      },
      {
        "href": "https://api.spotify.com/v1/browse/categories/0JQ5DAqbMKFFzDl7qN9Apr",
        "id": "0JQ5DAqbMKFFzDl7qN9Apr",
        "icons": [
          {
            "height": 274,
            "url": "https://t.scdn.co/media/derived/chill-274x274_4c46374f007813dd10b37e8d8fd35b4b_0_0_274_274.jpg",
            "width": 274
          }
        ],
        "name": "弛放"
      },
      {
        "href": "https://api.spotify.com/v1/browse/categories/0JQ5DAqbMKFCuoRTxhYWow",
        "id": "0JQ5DAqbMKFCuoRTxhYWow",
        "icons": [
          {
            "height": 274,
            "url": "https://t.scdn.co/media/derived/sleep-274x274_0d4f836af8fab7bf31526968073e671c_0_0_274_274.jpg",
            "width": 274
          }
        ],
        "name": "睡眠"
      },
      {
        "href": "https://api.spotify.com/v1/browse/categories/0JQ5DAqbMKFA6SOHvT3gck",
        "id": "0JQ5DAqbMKFA6SOHvT3gck",
        "icons": [
          {
            "height": 274,
            "url": "https://t.scdn.co/images/7ee6530d5b3c4acc9a0957046bf11d63",
            "width": 274
          }
        ],
        "name": "派对"
      },
      {
        "href": "https://api.spotify.com/v1/browse/categories/0JQ5DAqbMKFx0uLQR2okcc",
        "id": "0JQ5DAqbMKFx0uLQR2okcc",
        "icons": [
          {
            "height": 274,
            "url": "https://t.scdn.co/images/04da469dd7be4dab96659aa1fa9f0ac9.jpeg",
            "width": 274
          }
        ],
        "name": "宅家"
      },
      {
        "href": "https://api.spotify.com/v1/browse/categories/0JQ5DAqbMKFIVNxQgRNSg0",
        "id": "0JQ5DAqbMKFIVNxQgRNSg0",
        "icons": [
          {
            "height": 274,
            "url": "https://t.scdn.co/images/04111a3b810243288d81a539ba03f8d0",
            "width": 274
          }
        ],
        "name": "年代"
      },
      {
        "href": "https://api.spotify.com/v1/browse/categories/0JQ5DAqbMKFAUsdyVjCQuL",
        "id": "0JQ5DAqbMKFAUsdyVjCQuL",
        "icons": [
          {
            "height": 274,
            "url": "https://t.scdn.co/media/derived/romance-274x274_8100794c94847b6d27858bed6fa4d91b_0_0_274_274.jpg",
            "width": 274
          }
        ],
        "name": "爱情"
      },
      {
        "href": "https://api.spotify.com/v1/browse/categories/0JQ5DAqbMKFDkd668ypn6O",
        "id": "0JQ5DAqbMKFDkd668ypn6O",
        "icons": [
          {
            "height": 274,
            "url": "https://t.scdn.co/media/original/metal_27c921443fd0a5ba95b1b2c2ae654b2b_274x274.jpg",
            "width": 274
          }
        ],
        "name": "金属"
      },
      {
        "href": "https://api.spotify.com/v1/browse/categories/0JQ5DAqbMKFAJ5xb0fwo9m",
        "id": "0JQ5DAqbMKFAJ5xb0fwo9m",
        "icons": [
          {
            "height": 274,
            "url": "https://t.scdn.co/images/568f37f1cab54136939d63bd1f59d40c",
            "width": 274
          }
        ],
        "name": "爵士"
      },
      {
        "href": "https://api.spotify.com/v1/browse/categories/0JQ5DAqbMKFQIL0AXnG5AK",
        "id": "0JQ5DAqbMKFQIL0AXnG5AK",
        "icons": [
          {
            "height": 274,
            "url": "https://t.scdn.co/images/ac75ec857b714a118c73218bb58664e5.jpeg",
            "width": 274
          }
        ],
        "name": "人气攀升"
      }
    ],
    "limit": 28,
    "next": "https://api.spotify.com/v1/browse/categories?offset=28&limit=28&locale=zh-CN,zh;q%3D0.9,en;q%3D0.8",
    "offset": 0,
    "previous": null,
    "total": 59
  }
}
